<svg width="150" height="150" version="1.1" viewBox="28 35 150 150" xmlns="http://www.w3.org/2000/svg">
 <defs>
  <clipPath id="a">
   <rect x="28" y="35" width="148" height="66.214" fill="#45425a" style="paint-order:stroke fill markers"/>
  </clipPath>
 </defs>
 <g>
  <rect x="28" y="35" width="150" height="150" fill="#d0d5df" style="paint-order:stroke fill markers"/>
  <rect x="28" y="35" width="150" height="36.35" fill="#95b46a" style="paint-order:stroke fill markers"/>
  <rect x="28" y="35" width="150" height="22.341" fill="#45425a" style="paint-order:stroke fill markers"/>
 </g>
 <g transform="translate(.95022 2.5)">
  <path d="m110.6 37.65c-1.5 2.3-3.8 4-6.5 4.5-4.1 0.8-8.2-1-10.4-4.5l-8.5 5.3c4.4 7.1 12.7 10.6 20.9 9 5.4-1.1 10.1-4.3 13-9zm-18.5 98.4v11.3h-10v10h10v10h-10v10h30v-41.3c6.9-1.8 13.2-5.4 18.3-10.4l11.7 11.7v-40h-40l14.1 14.1c-2.8 2.8-6.3 4.7-10.2 5.5-9.3 1.9-18.7-3.1-22.4-11.9s-0.6-19 7.2-24.3c7.9-5.3 18.5-4.4 25.2 2.3l14-14.2c-7.6-7.5-18.1-11.5-28.1-11.5-23 0-40 19-39.9 39s13.1 35.1 30.1 39.7z" fill="#95b46a"/>
  <path transform="translate(0,-5)" d="m110.6 42.65c-1.5 2.3-3.8 4-6.5 4.5-4.1 0.8-8.2-1-10.4-4.5l-8.5 5.3c4.4 7.1 12.7 10.6 20.9 9 5.4-1.1 10.1-4.3 13-9z" clip-path="url(#a)" fill="#ffb140"/>
  <path d="m92.1 136.05c6.5231 1.5959 13.498 1.4436 20 0 6.9-1.8 13.2-5.4 18.3-10.4l11.7 11.7v-40h-40l14.1 14.1c-2.8 2.8-6.3 4.7-10.2 5.5-9.3 1.9-18.7-3.1-22.4-11.9s-0.6-19 7.2-24.3c7.9-5.3 18.5-4.4 25.2 2.3l14-14.2c-7.6-7.5-18.1-11.5-28.1-11.5-23 0-40 19-39.9 39s13.1 35.1 30.1 39.7z" fill="#45425a"/>
 </g>
</svg>
